Division,WeightClassKg,Place,Name,Team,BodyweightKg,Best3SquatKg,Best3BenchKg,Best3DeadliftKg,TotalKg,Equipment,Event,Sex,BirthDate
Boys,51.71,1,Josiah Maldonado,Robstown,48.72,133.81,58.97,142.88,335.66,Single-ply,SBD,M,
Boys,51.71,2,Cristian Cantu,Hebbronville,50.98,90.72,36.29,72.57,199.58,Single-ply,SBD,M,
Boys,55.79,1,Adan Diaz,Hebbronville,53.61,106.59,54.43,108.86,269.89,Single-ply,SBD,M,
Boys,55.79,2,Sergio Benavente,Benavides,54.43,61.23,56.7,124.74,242.67,Single-ply,SBD,M,
Boys,55.79,DQ,Carson Guidry,Taft,55.7,92.99,,,,Single-ply,SBD,M,
Boys,55.79,DQ,Austin Lopez,Robstown,55.79,127.01,,,,Single-ply,SBD,M,
Boys,55.79,DQ,Ryan Perez,Ben Bolt-Palito Blanco,54.88,127.01,81.65,,,Single-ply,SBD,M,
Boys,59.87,1,Joseph Espinoza,Taft,58.6,170.1,106.59,188.24,464.93,Single-ply,SBD,M,
Boys,59.87,2,Jacob Martinez,Hebbronville,59.24,151.95,77.11,170.1,399.16,Single-ply,SBD,M,
Boys,59.87,3,Mark Moreno,Odem,59.24,151.95,77.11,163.29,392.36,Single-ply,SBD,M,
Boys,59.87,4,Rogelio Sanchez,Odem,56.52,136.08,65.77,172.37,374.21,Single-ply,SBD,M,
Boys,59.87,5,James Adams,Odem,59.87,133.81,83.91,149.69,367.41,Single-ply,SBD,M,
Boys,59.87,6,Seth Solis,Hebbronville,57.24,129.27,72.57,156.49,358.34,Single-ply,SBD,M,
Boys,59.87,7,Jordan Barrera,Santa Gertrudis Academy,57.97,115.67,65.77,147.42,328.85,Single-ply,SBD,M,
Boys,59.87,8,Marques Shelton,Santa Gertrudis Academy,58.69,61.23,49.9,106.59,217.72,Single-ply,SBD,M,
Boys,59.87,DQ,Michael Lopez,Robstown,59.33,176.9,,,,Single-ply,SBD,M,
Boys,59.87,DQ,Juan Lopez,Robstown,59.6,145.15,,,,Single-ply,SBD,M,
Boys,67.13,1,Joseph Chavez,Taft,66.77,174.63,99.79,195.04,469.47,Single-ply,SBD,M,
Boys,67.13,2,Rolando Ramos,Hebbronville,63.59,158.76,102.06,170.1,430.91,Single-ply,SBD,M,
Boys,67.13,3,Raul Vasquez,Ingleside,66.5,158.76,95.25,174.63,428.64,Single-ply,SBD,M,
Boys,67.13,4,Ethan Vasquez,Alice,63.59,142.88,97.52,158.76,399.16,Single-ply,SBD,M,
Boys,67.13,5,Diego Rodriguez,Hebbronville,64.59,131.54,83.91,156.49,371.95,Single-ply,SBD,M,
Boys,67.13,6,Nygel Hudson,Ingleside,66.68,154.22,81.65,136.08,371.95,Single-ply,SBD,M,
Boys,67.13,7,Andrew Alaniz,Hebbronville,59.96,145.15,81.65,142.88,369.68,Single-ply,SBD,M,
Boys,67.13,8,Francisco Torres,Taft,65.32,117.93,61.23,136.08,315.25,Single-ply,SBD,M,
Boys,67.13,DQ,Jason Sanchez,Santa Gertrudis Academy,66.77,102.06,40.82,,,Single-ply,SBD,M,
Boys,67.13,DQ,Jesus Gonzalez,Benavides,65.23,183.7,,,,Single-ply,SBD,M,
Boys,67.13,DQ,Jerek Sanchez,Taft,60.51,167.83,,,,Single-ply,SBD,M,
Boys,74.84,1,Chris Garcia #15,Ben Bolt-Palito Blanco,69.13,190.51,136.08,204.12,530.7,Single-ply,SBD,M,
Boys,74.84,2,Eli Naranjo,Hebbronville,72.94,195.04,113.4,215.46,523.9,Single-ply,SBD,M,
Boys,74.84,3,Leonel Guerrero,Hebbronville,74.3,183.7,120.2,192.78,496.68,Single-ply,SBD,M,
Boys,74.84,4,Alex De La Fuente,Falfurrias,74.57,183.7,122.47,181.44,487.61,Single-ply,SBD,M,
Boys,74.84,5,Elijah Galvan,Ingleside,71.76,165.56,97.52,185.97,449.06,Single-ply,SBD,M,
Boys,74.84,6,Adrian Perez,Robstown,72.39,158.76,111.13,179.17,449.06,Single-ply,SBD,M,
Boys,74.84,7,John Espinoza,Odem,73.94,170.1,90.72,165.56,426.38,Single-ply,SBD,M,
Boys,74.84,8,Robert Scadlock,Ingleside,70.13,117.93,88.45,158.76,365.14,Single-ply,SBD,M,
Boys,74.84,9,Joseph Rosas,Santa Gertrudis Academy,73.66,90.72,65.77,136.08,292.57,Single-ply,SBD,M,
Boys,74.84,10,Dylan Vela,Santa Gertrudis Academy,70.58,106.59,65.77,115.67,288.03,Single-ply,SBD,M,
Boys,82.1,1,Jacob Loera,Alice,81.1,226.8,151.95,233.6,612.35,Single-ply,SBD,M,
Boys,82.1,2,Caleb Marshall,Hebbronville,81.74,215.46,149.69,219.99,585.13,Single-ply,SBD,M,
Boys,82.1,3,Cody Ceo,Ben Bolt-Palito Blanco,80.47,206.38,136.08,197.31,539.77,Single-ply,SBD,M,
Boys,82.1,4,Spencer Bosarge,Ingleside,79.2,145.15,108.86,167.83,421.84,Single-ply,SBD,M,
Boys,82.1,5,Justin Navarro,Falfurrias,79.02,161.03,72.57,158.76,392.36,Single-ply,SBD,M,
Boys,82.1,DQ,Robert Medina,Hebbronville,78.56,111.13,,,,Single-ply,SBD,M,
Boys,89.81,1,Cody Rosas,Robstown,89.72,231.33,156.49,208.65,596.47,Single-ply,SBD,M,
Boys,89.81,2,Landon Garza,Odem,87.72,226.8,127.01,204.12,557.92,Single-ply,SBD,M,
Boys,89.81,3,Brandon Salazar,Hebbronville,87,181.44,158.76,204.12,544.31,Single-ply,SBD,M,
Boys,89.81,4,Paul Baez,Hebbronville,87.36,206.38,136.08,190.51,532.97,Single-ply,SBD,M,
Boys,89.81,5,Seth Morgan,Ingleside,84.37,183.7,108.86,188.24,480.81,Single-ply,SBD,M,
Boys,89.81,6,Anastacio Lopez,Taft,84.28,156.49,72.57,163.29,392.36,Single-ply,SBD,M,
Boys,89.81,7,Ben Ortega,Santa Gertrudis Academy,84.82,122.47,68.04,136.08,326.59,Single-ply,SBD,M,
Boys,99.79,1,Juan Chavera,Falfurrias,93.71,263.08,158.76,213.19,635.03,Single-ply,SBD,M,
Boys,99.79,2,Marcus Cerda,Taft,98.79,254.01,158.76,215.46,628.23,Single-ply,SBD,M,
Boys,99.79,3,Steve Peña #2,Robstown,98.61,231.33,165.56,222.26,619.15,Single-ply,SBD,M,
Boys,99.79,4,Daniel Tamez,Odem,99.43,226.8,104.33,217.72,548.85,Single-ply,SBD,M,
Boys,99.79,5,Nick Benavides,Falfurrias,97.07,195.04,147.42,183.7,526.17,Single-ply,SBD,M,
Boys,99.79,6,Brandon Beltran,Odem,91.99,226.8,115.67,181.44,523.9,Single-ply,SBD,M,
Boys,99.79,7,Jesse Estes,Santa Gertrudis Academy,91.99,158.76,92.99,185.97,437.72,Single-ply,SBD,M,
Boys,99.79,8,Austin Neil,Ingleside,97.34,181.44,81.65,172.37,435.45,Single-ply,SBD,M,
Boys,99.79,9,Matt Ramirez,Santa Gertrudis Academy,92.62,145.15,79.38,142.88,367.41,Single-ply,SBD,M,
Boys,99.79,DQ,Agapito Carrera,Taft,97.89,183.7,102.06,,,Single-ply,SBD,M,
Boys,109.77,1,Brandon Rodriguez #2,Robstown,104.51,226.8,174.63,238.14,639.57,Single-ply,SBD,M,
Boys,109.77,2,Mason Pena,Ben Bolt-Palito Blanco,109.5,226.8,140.61,217.72,585.13,Single-ply,SBD,M,
Boys,109.77,3,Michael Esquivel,Taft,100.97,226.8,151.95,197.31,576.06,Single-ply,SBD,M,
Boys,109.77,4,Noah Martinez #5,Santa Gertrudis Academy,108.5,195.04,115.67,185.97,496.68,Single-ply,SBD,M,
Boys,109.77,5,Raul Pacheoco,Alice,106.5,183.7,97.52,142.88,424.11,Single-ply,SBD,M,
Boys,109.77,6,Angel Hernandez #14,Robstown,104.69,136.08,90.72,165.56,392.36,Single-ply,SBD,M,
Boys,109.77,DQ,Juanito Cabrera,Falfurrias,108.59,206.38,97.52,,,Single-ply,SBD,M,
Boys,124.74,1,Jamie Gonzales,Taft,116.94,276.69,165.56,256.28,698.53,Single-ply,SBD,M,
Boys,124.74,2,Anthony Rogers,Ingleside,112.22,274.42,167.83,222.26,664.51,Single-ply,SBD,M,
Boys,124.74,3,Julian Gomez,Odem,115.21,263.08,165.56,233.6,662.24,Single-ply,SBD,M,
Boys,124.74,4,Mark Pena,Robstown,123.74,219.99,129.27,185.97,535.24,Single-ply,SBD,M,
Boys,124.74,5,Joseph Gonzalez,Falfurrias,116.48,188.24,92.99,172.37,453.59,Single-ply,SBD,M,
Boys,124.74,6,Nathan Moreno,Ingleside,120.38,183.7,102.06,154.22,439.98,Single-ply,SBD,M,
Boys,124.74,7,Cistro Longoria,Falfurrias,111.86,183.7,61.23,183.7,428.64,Single-ply,SBD,M,
Boys,124.74,8,Jaydon Valdetas,Hebbronville,111.49,113.4,72.57,147.42,333.39,Single-ply,SBD,M,
Boys,124.74,DQ,Ventura Leal,Robstown,122.83,188.24,,,,Single-ply,SBD,M,
Boys,124.74,DQ,Jason Flores,Santa Gertrudis Academy,115.76,208.65,108.86,,,Single-ply,SBD,M,
Boys,124.74+,1,Ryan Garcia #1,Edinburg Idea College Prep,127.19,283.5,151.95,265.35,700.8,Single-ply,SBD,M,
Boys,124.74+,2,Chris Rodriguez,Hebbronville,134.54,247.21,156.49,215.46,619.15,Single-ply,SBD,M,
Boys,124.74+,3,Samuel Salinas,Santa Gertrudis Academy,133.72,231.33,138.35,231.33,601.01,Single-ply,SBD,M,
Boys,124.74+,4,Tony Chavez,Taft,162.93,204.12,111.13,190.51,505.76,Single-ply,SBD,M,
Boys,124.74+,5,Jorge Rodriguez,Taft,164.11,70.31,68.04,158.76,297.1,Single-ply,SBD,M,
Boys,124.74+,DQ,Ademar Garcia,Hebbronville,134.08,,,,,Single-ply,SBD,M,
