Division,WeightClassKg,Place,Name,Team,BodyweightKg,Best3SquatKg,Best3BenchKg,Best3DeadliftKg,TotalKg,Equipment,Event,Sex
Boys,51.71,1,Uriel Rodriguez,Crawford,47.81,131.54,70.31,133.81,335.66,Single-ply,SBD,M
Boys,51.71,2,Ross Ginsburg,Waco Reicher Catholic,50.35,111.13,56.7,122.47,290.3,Single-ply,SBD,M
Boys,55.79,3,Rodrigo Hernandez,Hillsboro,51.89,104.33,61.23,122.47,288.03,Single-ply,SBD,M
Boys,51.71,4,Phillip Sharp,Waco Reicher Catholic,51.26,99.79,63.5,117.93,281.23,Single-ply,SBD,M
Boys,51.71,5,Dalton Wiethorn,West,51.53,95.25,56.7,111.13,263.08,Single-ply,SBD,M
Boys,51.71,6,Stephen McNaught,Meridian,47.99,65.77,43.09,86.18,195.04,Single-ply,SBD,M
Boys,51.71,7,Jon Whalen,Whitney,43.91,68.04,34.02,77.11,179.17,Single-ply,SBD,M
Boys,51.71,8,Ryan Daniel,Whitney,41.28,58.97,29.48,65.77,154.22,Single-ply,SBD,M
Boys,55.79,1,Cody Villa,Crawford,55.34,154.22,99.79,199.58,453.59,Single-ply,SBD,M
Boys,55.79,2,Emiliano Mar,Clifton,54.88,129.27,74.84,133.81,337.93,Single-ply,SBD,M
Boys,55.79,3,Javier Sauceda,China Spring,55.43,113.4,72.57,142.88,328.85,Single-ply,SBD,M
Boys,59.87,4,Noah Weigant,Whitney,55.84,117.93,72.57,127.01,317.51,Single-ply,SBD,M
Boys,55.79,5,Robby Brewer,Clifton,53.43,113.4,65.77,115.67,294.84,Single-ply,SBD,M
Boys,55.79,6,Clayton Keahey,Waco Reicher Catholic,54.52,102.06,61.23,117.93,281.23,Single-ply,SBD,M
Boys,59.87,7,Cole Simmons,West,55.88,95.25,56.7,113.4,265.35,Single-ply,SBD,M
Boys,55.79,DQ,Mason Mathews,Gatesville,54.88,104.33,58.97,,,Single-ply,SBD,M
Boys,67.13,1,Luis Juarez,Bosqueville,60.06,206.38,115.67,208.65,530.7,Single-ply,SBD,M
Boys,59.87,2,Nolan Jackson,Lorena,59.78,156.49,77.11,154.22,387.82,Single-ply,SBD,M
Boys,59.87,3,Adolfo Rodriguez,West,59.15,151.95,83.91,149.69,385.55,Single-ply,SBD,M
Boys,59.87,4,Joseph Bryant,Waco La Vega,58.97,122.47,74.84,149.69,347,Single-ply,SBD,M
Boys,59.87,5,Zachary Pierce,Lorena,58.42,136.08,65.77,113.4,315.25,Single-ply,SBD,M
Boys,59.87,6,Brandon Putnam,Moody,59.87,106.59,81.65,117.93,306.17,Single-ply,SBD,M
Boys,59.87,7,Jarred Childers,Meridian,58.33,102.06,74.84,111.13,288.03,Single-ply,SBD,M
Boys,67.13,8,Christian Bares,Whitney,60.06,81.65,65.77,113.4,260.82,Single-ply,SBD,M
Boys,67.13,1,Kyle Jacobs,McGregor,67.13,176.9,138.35,192.78,508.02,Single-ply,SBD,M
Boys,67.13,2,Noah Contella,Waco Reicher Catholic,67.04,199.58,113.4,188.24,501.22,Single-ply,SBD,M
Boys,67.13,3,Andrew Marrero,Lorena,67.04,199.58,95.25,188.24,483.08,Single-ply,SBD,M
Boys,67.13,4,Ty Mooney,McGregor,66.5,206.38,86.18,174.63,467.2,Single-ply,SBD,M
Boys,67.13,5,Phillip Carpenter,Waco La Vega,65.59,176.9,86.18,197.31,460.4,Single-ply,SBD,M
Boys,74.84,6,Gilberto Flores,Clifton,67.31,165.56,106.59,165.56,437.72,Single-ply,SBD,M
Boys,67.13,7,Nate Seale,McGregor,65.86,158.76,102.06,165.56,426.38,Single-ply,SBD,M
Boys,67.13,8,Colton Bauer,Lorena,66.13,163.29,90.72,163.29,417.3,Single-ply,SBD,M
Boys,67.13,9,Hunter Solano,Waco Reicher Catholic,65.86,154.22,92.99,165.56,412.77,Single-ply,SBD,M
Boys,67.13,10,Tanner Bailey,Waco Reicher Catholic,65.95,142.88,83.91,181.44,408.23,Single-ply,SBD,M
Boys,67.13,11,Nick Weigant,Whitney,63.96,161.03,95.25,147.42,403.7,Single-ply,SBD,M
Boys,67.13,12,Hugo Chavez,Hillsboro,65.23,156.49,79.38,163.29,399.16,Single-ply,SBD,M
Boys,67.13,13,Nick Harris,Lorena,63.59,154.22,86.18,151.95,392.36,Single-ply,SBD,M
Boys,67.13,14,Simon Rusu,Waco La Vega,60.78,145.15,86.18,151.95,383.29,Single-ply,SBD,M
Boys,67.13,15,Kelby Sultemeier,West,63.5,154.22,79.38,129.27,362.87,Single-ply,SBD,M
Boys,67.13,16,Michael Land,Gatesville,62.41,147.42,74.84,129.27,351.53,Single-ply,SBD,M
Boys,67.13,17,Josh Turner,McGregor,61.42,136.08,81.65,127.01,344.73,Single-ply,SBD,M
Boys,67.13,18,Martin Bruich,Waco Reicher Catholic,63.32,122.47,68.04,140.61,331.12,Single-ply,SBD,M
Boys,67.13,19,David Johnson,Waco Reicher Catholic,60.96,115.67,65.77,131.54,312.98,Single-ply,SBD,M
Boys,67.13,20,Hudson Howell,Cleburne,61.69,108.86,61.23,136.08,306.17,Single-ply,SBD,M
Boys,67.13,21,Mariano Perez,West,65.14,120.2,54.43,115.67,290.3,Single-ply,SBD,M
Boys,67.13,22,Blake Herrera,Bruceville-Eddy,60.78,131.54,,,131.54,Single-ply,S,M
Boys,67.13,23,Dustin Richter,Bosqueville,63.5,108.86,,,108.86,Single-ply,S,M
Boys,67.13,DQ,Dylan Greene,Whitney,65.5,136.08,,,,Single-ply,S,M
Boys,67.13,DQ,James Davis,Waco Connally,64.41,181.44,,,,Single-ply,S,M
Boys,67.13,DQ,Marcus Howard,Waco Connally,64.41,167.83,,,,Single-ply,S,M
Boys,74.84,1,Chris Dingrando,Whitney,74.25,190.51,124.74,210.92,526.17,Single-ply,SBD,M
Boys,74.84,2,Jt Estes,Whitney,69.85,190.51,127.01,172.37,489.88,Single-ply,SBD,M
Boys,74.84,3,Luis Flores,Clifton,68.76,183.7,111.13,181.44,476.27,Single-ply,SBD,M
Boys,74.84,4,Barclay Brunson,Crawford,71.3,167.83,102.06,183.7,453.59,Single-ply,SBD,M
Boys,74.84,5,Drew Roberts,China Spring,74.84,183.7,117.93,151.95,453.59,Single-ply,SBD,M
Boys,82.1,6,Eduardo Ortiz,Hillsboro,75.02,170.1,95.25,183.7,449.06,Single-ply,SBD,M
Boys,74.84,7,Dakota Runnels,Cleburne,67.77,151.95,97.52,183.7,433.18,Single-ply,SBD,M
Boys,74.84,8,Brandon Pelton,Waco La Vega,71.3,161.03,90.72,170.1,421.84,Single-ply,SBD,M
Boys,74.84,9,John Werner,Bruceville-Eddy,68.86,147.42,97.52,167.83,412.77,Single-ply,SBD,M
Boys,74.84,10,MacKenzie Dulaney,Meridian,73.03,167.83,83.91,156.49,408.23,Single-ply,SBD,M
Boys,74.84,11,Juan Ruiz,Cleburne,74.03,151.95,92.99,161.03,405.97,Single-ply,SBD,M
Boys,74.84,12,Desmond Harris,Waco Connally,70.85,149.69,86.18,149.69,385.55,Single-ply,SBD,M
Boys,74.84,13,Kyle Holecek,Waco Reicher Catholic,73.48,129.27,77.11,149.69,356.07,Single-ply,SBD,M
Boys,82.1,14,Brian Leal,Whitney,75.02,111.13,81.65,136.08,328.85,Single-ply,SBD,M
Boys,74.84,15,Patrick Cresson,Lorena,74.84,120.2,77.11,120.2,317.51,Single-ply,SBD,M
Boys,82.1,1,Chase McGhee,Gatesville,78.65,272.16,165.56,247.21,684.92,Single-ply,SBD,M
Boys,82.1,2,Brett Boles,McGregor,78.56,226.8,158.76,226.8,612.35,Single-ply,SBD,M
Boys,82.1,3,Dawson Lochridge,Whitney,81.92,181.44,122.47,204.12,508.02,Single-ply,SBD,M
Boys,82.1,4,Stevie Stoermer,West,80.83,181.44,111.13,197.31,489.88,Single-ply,SBD,M
Boys,82.1,5,Koltan Hampton,China Spring,78.47,190.51,102.06,181.44,474,Single-ply,SBD,M
Boys,82.1,6,Ben Hernandez,Waco La Vega,77.2,165.56,90.72,199.58,455.86,Single-ply,SBD,M
Boys,82.1,7,Mario Ponce,Cleburne,81.83,195.04,99.79,161.03,455.86,Single-ply,SBD,M
Boys,82.1,8,Gc Davis,McGregor,80.83,170.1,102.06,172.37,444.52,Single-ply,SBD,M
Boys,82.1,9,Alex Parsons,McGregor,81.83,174.63,102.06,167.83,444.52,Single-ply,SBD,M
Boys,82.1,10,Taylor Bradley,Clifton,77.47,156.49,97.52,181.44,435.45,Single-ply,SBD,M
Boys,82.1,11,Logan Willenborg,West,80.65,154.22,95.25,181.44,430.91,Single-ply,SBD,M
Boys,82.1,12,Trevor Sellers,Grandview,79.74,158.76,111.13,151.95,421.84,Single-ply,SBD,M
Boys,82.1,13,Michael Hallman,Gatesville,76.75,161.03,95.25,156.49,412.77,Single-ply,SBD,M
Boys,82.1,14,Reed Kilpatrick,Lorena,82.01,145.15,86.18,158.76,390.09,Single-ply,SBD,M
Boys,82.1,15,Timmy Thomas,Whitney,81.65,136.08,79.38,133.81,349.27,Single-ply,SBD,M
Boys,89.81,DQ,Jorge Hernandez,Cleburne,82.28,158.76,81.65,,,Single-ply,SBD,M
Boys,82.1,DQ,James Brown,China Spring,81.28,174.63,113.4,,,Single-ply,SBD,M
Boys,89.81,1,Brody Jones,Crawford,87.27,272.16,163.29,244.94,680.39,Single-ply,SBD,M
Boys,89.81,2,Dillon Van Zandt,Crawford,86.55,201.85,102.06,204.12,508.02,Single-ply,SBD,M
Boys,89.81,3,Lovett Ledger,Lorena,86.64,210.92,102.06,195.04,508.02,Single-ply,SBD,M
Boys,89.81,4,Jason Schmidt #1,Clifton,86.64,176.9,111.13,215.46,503.49,Single-ply,SBD,M
Boys,89.81,5,Justin Mosley,Gatesville,83.73,195.04,113.4,190.51,498.95,Single-ply,SBD,M
Boys,99.79,6,Cody Williams,Lorena,89.99,188.24,115.67,181.44,485.34,Single-ply,SBD,M
Boys,89.81,7,Sam Jackson #1,Gatesville,86.18,181.44,102.06,185.97,469.47,Single-ply,SBD,M
Boys,89.81,8,Dustin Brown,Waco La Vega,83.37,179.17,124.74,154.22,458.13,Single-ply,SBD,M
Boys,89.81,9,Michael Autenrieth,Waco Connally,85.37,176.9,97.52,181.44,455.86,Single-ply,SBD,M
Boys,89.81,10,Jordan Larance,Clifton,89.27,161.03,104.33,183.7,449.06,Single-ply,SBD,M
Boys,89.81,11,David Librado,Hillsboro,84.28,172.37,97.52,151.95,421.84,Single-ply,SBD,M
Boys,89.81,12,Aaron Blanton,China Spring,87.36,149.69,88.45,181.44,419.57,Single-ply,SBD,M
Boys,89.81,13,Steven Field,China Spring,87.54,145.15,97.52,172.37,415.04,Single-ply,SBD,M
Boys,89.81,14,Bryan Montenegro,Waco Connally,84.64,151.95,86.18,149.69,387.82,Single-ply,SBD,M
Boys,89.81,15,Josh Ramsey,Meridian,87.18,138.35,95.25,149.69,383.29,Single-ply,SBD,M
Boys,89.81,16,Nathan Nix,Whitney,88,124.74,86.18,158.76,369.68,Single-ply,SBD,M
Boys,89.81,17,Justin Wardlow,Whitney,86.36,136.08,79.38,136.08,351.53,Single-ply,SBD,M
Boys,89.81,18,Payton Price #1,Grandview,87.54,113.4,81.65,111.13,306.17,Single-ply,SBD,M
Boys,89.81,DQ,Lucas Bowen,Grandview,84.55,136.08,,,,Single-ply,SBD,M
Boys,89.81,DQ,Nathaniel Hudson,Cleburne,86.55,176.9,,,,Single-ply,SBD,M
Boys,99.79,1,Hosbaldo Ruiz,Cleburne,98.61,242.67,151.95,231.33,625.96,Single-ply,SBD,M
Boys,99.79,2,Dalton Symm,China Spring,94.98,240.4,158.76,224.53,623.69,Single-ply,SBD,M
Boys,99.79,3,Deoryen Thornton,Waco Connally,95.98,231.33,140.61,208.65,580.6,Single-ply,SBD,M
Boys,99.79,4,Taylor Hull,China Spring,93.89,219.99,142.88,206.38,569.26,Single-ply,SBD,M
Boys,99.79,5,Ace Rurak,Grandview,99.7,240.4,129.27,197.31,566.99,Single-ply,SBD,M
Boys,99.79,6,Jacob Trevino,Moody,99.06,217.72,140.61,185.97,544.31,Single-ply,SBD,M
Boys,99.79,7,Tyler Pustejovsky,West,97.07,195.04,122.47,199.58,517.1,Single-ply,SBD,M
Boys,99.79,8,Nate Ramirez,Whitney,93.89,190.51,122.47,185.97,498.95,Single-ply,SBD,M
Boys,99.79,9,Brandon Taylor,Gatesville,98.88,197.31,102.06,197.31,496.68,Single-ply,SBD,M
Boys,99.79,10,Taylor Robinson,McGregor,97.34,174.63,136.08,165.56,476.27,Single-ply,SBD,M
Boys,99.79,11,Jesus Garza,Meridian,99.25,158.76,106.59,165.56,430.91,Single-ply,SBD,M
Boys,99.79,12,Joe Fallwell,Whitney,94.17,111.13,74.84,136.08,322.05,Single-ply,SBD,M
Boys,99.79,DQ,Emanuel Chavez,Valley Mills,96.34,142.88,,,,Single-ply,SBD,M
Boys,99.79,DQ,Ethan Campbell,Grandview,90.54,165.56,,,,Single-ply,SBD,M
Boys,109.77,1,Chris Robinson #5,Waco Connally,104.69,283.5,151.95,272.16,707.6,Single-ply,SBD,M
Boys,109.77,2,Ryan de la Garza,Waco Connally,109.59,272.16,158.76,233.6,664.51,Single-ply,SBD,M
Boys,109.77,3,Justin Rhyne,Gatesville,106.41,217.72,176.9,210.92,605.55,Single-ply,SBD,M
Boys,109.77,4,Jason Harris,West,105.87,238.14,142.88,222.26,603.28,Single-ply,SBD,M
Boys,109.77,5,Jordan Rivera,Waco La Vega,109.59,204.12,124.74,217.72,546.58,Single-ply,SBD,M
Boys,109.77,6,Jared Camp,Grandview,105.23,206.38,106.59,181.44,494.42,Single-ply,SBD,M
Boys,109.77,7,Jacob Mata,Clifton,109.5,183.7,117.93,190.51,492.15,Single-ply,SBD,M
Boys,109.77,8,Abram Villescaz,Waco Reicher Catholic,109.59,176.9,97.52,206.38,480.81,Single-ply,SBD,M
Boys,109.77,9,Doc Griego,Gatesville,105.32,181.44,104.33,183.7,469.47,Single-ply,SBD,M
Boys,109.77,10,Brayan Villa,Grandview,100.88,181.44,115.67,170.1,467.2,Single-ply,SBD,M
Boys,109.77,11,Chris Robles,Cleburne,105.96,161.03,111.13,190.51,462.66,Single-ply,SBD,M
Boys,109.77,12,Rafael Castaneda,Hillsboro,109.04,151.95,104.33,174.63,430.91,Single-ply,SBD,M
Boys,109.77,13,Derrick Oliver,Whitney,105.32,163.29,83.91,133.81,381.02,Single-ply,SBD,M
Boys,109.77,14,Jacob Etheredge,McGregor,105.28,131.54,83.91,142.88,358.34,Single-ply,SBD,M
Boys,109.77,DQ,Matt Gerik,West,106.78,290.3,,,,Single-ply,SBD,M
Boys,124.74,1,Trent Andrews,Bosqueville,119.11,283.5,140.61,278.96,703.07,Single-ply,SBD,M
Boys,124.74,2,Erik Zavala,Hillsboro,112.04,235.87,133.81,240.4,610.08,Single-ply,SBD,M
Boys,124.74,3,Jordan Westbrook,Gatesville,117.66,231.33,158.76,217.72,607.81,Single-ply,SBD,M
Boys,124.74,4,Garrett Brunson,Lorena,118.39,235.87,136.08,226.8,598.74,Single-ply,SBD,M
Boys,124.74,5,Austin Allsup,Lorena,114.4,215.46,117.93,204.12,537.51,Single-ply,SBD,M
Boys,124.74,6,Andrew French #2,Waco Reicher Catholic,123.97,204.12,115.67,195.04,514.83,Single-ply,SBD,M
Boys,124.74,7,Zack Mack,Gatesville,119.84,213.19,117.93,165.56,496.68,Single-ply,SBD,M
Boys,124.74,8,Andrew Escobedo,Waco La Vega,123.2,190.51,120.2,165.56,476.27,Single-ply,SBD,M
Boys,124.74,9,Noah Stebens,China Spring,113.22,181.44,111.13,165.56,458.13,Single-ply,SBD,M
Boys,124.74,DQ,Aaron Crasley,Grandview,120.84,204.12,,,,Single-ply,SBD,M
Boys,124.74+,1,Jessie Wilson,Whitney,150.14,281.23,229.06,285.76,796.05,Single-ply,SBD,M
Boys,124.74+,2,Tevin Boone,Cleburne,141.07,283.5,158.76,249.48,691.73,Single-ply,SBD,M
Boys,124.74+,3,Marques Robinson,Waco Connally,137.8,288.03,149.69,238.14,675.85,Single-ply,SBD,M
Boys,124.74+,4,Jordan Allen,Clifton,159.21,254.01,149.69,192.78,596.47,Single-ply,SBD,M
Boys,124.74+,5,Clay Sparks,China Spring,131.9,219.99,117.93,179.17,517.1,Single-ply,SBD,M
Boys,124.74+,6,Narciso Molina,Waco Connally,129,226.8,113.4,174.63,514.83,Single-ply,SBD,M
Boys,124.74+,7,Traylon Berry,Waco La Vega,134.9,199.58,136.08,158.76,494.42,Single-ply,SBD,M
Boys,124.74+,8,Codi Birch-Harris,Waco Connally,133.54,199.58,106.59,174.63,480.81,Single-ply,SBD,M
Boys,,NS,Billy Manolakis,West,,,,,,Single-ply,SBD,M
Boys,,NS,Byron Bryant,Waco La Vega,,,,,,Single-ply,SBD,M
Boys,,NS,Corey Kemp,Waco La Vega,,,,,,Single-ply,SBD,M
Boys,,NS,Cameron Pustejovsky,West,,,,,,Single-ply,SBD,M
Boys,,NS,Jaime Saucedo,Bosqueville,,,,,,Single-ply,SBD,M
Boys,,NS,Sam Brock,China Spring,,,,,,Single-ply,SBD,M
Boys,,NS,Chase Lordi,Cleburne,,,,,,Single-ply,SBD,M
Boys,,NS,Jared Conley,Cleburne,,,,,,Single-ply,SBD,M
Boys,,NS,Bryce Latson,Grandview,,,,,,Single-ply,SBD,M
Boys,,NS,Allen Scott,Waco Reicher Catholic,,,,,,Single-ply,SBD,M
