BirthDate,Place,Name,BirthYear,Team,BodyweightKg,WeightClassKg,Sex,Squat1Kg,Squat2Kg,Squat3Kg,Best3SquatKg,Bench1Kg,Bench2Kg,Bench3Kg,Best3BenchKg,Deadlift1Kg,Deadlift2Kg,Deadlift3Kg,Best3DeadliftKg,TotalKg,Equipment,Event,Division
,1,Patrizia Carta,1979,ITA,46.07,47,F,85,90,95,95,45,47.5,50,50,110,115,117.5,117.5,262.5,Raw,SBD,O
,1,Anastasia Corrias,1995,DISC,51.58,52,F,107.5,-112.5,-112.5,107.5,60,-62.5,-62.5,60,120,127.5,135,135,302.5,Raw,SBD,O
,2,Nicole Fadini,1998,DISC,50.81,52,F,100,105,-107.5,105,-65,65,-70,65,110,117.5,122.5,122.5,292.5,Raw,SBD,O
,3,Cristina Ancora,1997,DISC,50.86,52,F,97.5,105,107.5,107.5,42.5,47.5,-50,47.5,100,107.5,-110,107.5,262.5,Raw,SBD,O
,1,Marusa Traven,1993,OLI,57.00,57,F,105,112.5,115,115,60,65,-67.5,65,115,120,125,125,305,Raw,SBD,O
,2,Lara Vehar,2000,OLI,55.86,57,F,105,110,112.5,112.5,57.5,60,-62.5,60,110,117.5,122.5,122.5,295,Raw,SBD,O
,3,Eva Strgar,2005,SAM,55.11,57,F,107.5,-112.5,112.5,112.5,47.5,52.5,55,55,110,115,-117.5,115,282.5,Raw,SBD,O
,4,Miriam Cattarossi,1999,DISC,56.59,57,F,80,85,90,90,37.5,40,-42.5,40,77.5,-85,85,85,215,Raw,SBD,O
,1,Lucrezia Coro',2002,DISC,62.13,63,F,117.5,122.5,127.5,127.5,-55,55,-60,55,140,150,-155,150,332.5,Raw,SBD,O
,2,Ida Janež,2002,OLI,61.83,63,F,105,110,115,115,55,57.5,62.5,62.5,120,127.5,135,135,312.5,Raw,SBD,O
,3,Tjasa Vagaja,2000,OLI,61.16,63,F,102.5,107.5,112.5,112.5,62.5,65,67.5,67.5,117.5,125,130,130,310,Raw,SBD,O
,4,Tara Petra Klinc,1996,OLI,62.77,63,F,97.5,102.5,105,105,52.5,-57.5,-57.5,52.5,120,127.5,132.5,132.5,290,Raw,SBD,O
,5,Jasna Lah,2000,THOR,62.36,63,F,85,-90,90,90,42.5,-45,45,45,112.5,-115,115,115,250,Raw,SBD,O
,6,Sara Puntar,2000,DISC,62.05,63,F,80,85,87.5,87.5,40,42.5,-45,42.5,87.5,95,100,100,230,Raw,SBD,O
,7,Kim Riznič,2003,OLI,57.42,63,F,77.5,85,90,90,-37.5,40,42.5,42.5,82.5,90,95,95,227.5,Raw,SBD,O
,8,Ana Dolžan,2000,OLI,60.50,63,F,62.5,67.5,70,70,37.5,40,-42.5,40,75,80,85,85,195,Raw,SBD,O
,1,Ferjan Maruša Bizjak,1997,SAM,67.13,69,F,-145,-145,145,145,70,75,-77.5,75,140,150,155,155,375,Raw,SBD,O
,2,Giada Cassani,1987,DISC,68.08,69,F,120,127.5,135,135,-70,70,72.5,72.5,130,137.5,145,145,352.5,Raw,SBD,O
,3,Anja Rutar,1996,OLI,65.52,69,F,112.5,-117.5,120,120,52.5,-57.5,-57.5,52.5,152.5,157.5,162.5,162.5,335,Raw,SBD,O
,4,Nuša Balen,1999,OLI,68.84,69,F,95,100,105,105,62.5,67.5,70,70,135,142.5,147.5,147.5,322.5,Raw,SBD,O
,5,Brina Obreza,2001,OSK,65.94,69,F,115,120,125,125,65,-67.5,-67.5,65,130,-135,-135,130,320,Raw,SBD,O
,6,Sara Drazumeric,1994,OLI,66.46,69,F,95,100,105,105,37.5,40,-42.5,40,90,95,100,100,245,Raw,SBD,O
,7,Urska Fon,1997,OLI,66.20,69,F,50,55,57.5,57.5,-30,32.5,35,35,75,80,85,85,177.5,Raw,SBD,O
,1,Sabrina Privitera,2000,DISC,74.50,76,F,110,120,-125,120,42.5,47.5,50,50,130,140,-150,140,310,Raw,SBD,O
,1,Martina Sosič,2003,OLI,98.93,84+,F,92.5,105,-117.5,105,45,52.5,57.5,57.5,100,110,120,120,282.5,Raw,SBD,O
,2,Tina Režek,1980,OLI,101.68,84+,F,75,85,92.5,92.5,47.5,52.5,55,55,115,122.5,127.5,127.5,275,Raw,SBD,O
,1,Stas Orazem,2004,OLI,65.85,66,M,145,152.5,157.5,157.5,-100,105,110,110,170,180,187.5,187.5,455,Raw,SBD,O
,2,Lorenzo De Monte,1997,DISC,61.38,66,M,130,137.5,142.5,142.5,75,80,-82.5,80,137.5,142.5,147.5,147.5,370,Raw,SBD,O
,1,Tomaž Prijanovič,1993,KAR,73.07,74,M,200,207.5,212.5,212.5,142.5,147.5,-150,147.5,210,220,-230,220,580,Raw,SBD,O
,2,Dario Spajic,2001,OLI,73.63,74,M,172.5,182.5,190,190,112.5,117.5,122.5,122.5,212.5,225,-235,225,537.5,Raw,SBD,O
,3,Gašper Meden,1988,GROM,72.37,74,M,155,165,170,170,125,132.5,135,135,182.5,195,202.5,202.5,507.5,Raw,SBD,O
,4,Matija Lakner,2006,POL,69.62,74,M,125,132.5,-137.5,132.5,90,92.5,95,95,165,172.5,175,175,402.5,Raw,SBD,O
,1,Anze Strgar,1995,SAM,77.60,83,M,210,222.5,-227.5,222.5,122.5,127.5,130,130,220,232.5,-237.5,232.5,585,Raw,SBD,O
,2,Patrik Kodba,1999,OLI,80.51,83,M,175,185,195,195,115,122.5,127.5,127.5,195,207.5,215,215,537.5,Raw,SBD,O
,3,Zan Tomic,1997,POL,81.53,83,M,180,-187.5,192.5,192.5,115,125,130,130,185,197.5,210,210,532.5,Raw,SBD,O
,4,Zdenko Grecner,1989,DISC,77.89,83,M,150,-160,165,165,125,-130,-130,125,210,-220,-220,210,500,Raw,SBD,O
,5,Kristian Castellani,1997,DISC,77.79,83,M,165,175,-182.5,175,125,130,-135,130,175,-190,190,190,495,Raw,SBD,O
,6,Jakob Preskar,1998,POL,81.49,83,M,165,180,185,185,100,110,-115,110,180,190,200,200,495,Raw,SBD,O
,7,Peklaj Matevž Andolšek,1999,OLI,77.61,83,M,170,-177.5,180,180,115,-122.5,-127.5,115,180,195,-205,195,490,Raw,SBD,O
,8,Federico Pasin,2000,DISC,82.17,83,M,165,-170,-170,165,105,110,-115,110,190,192.5,195,195,470,Raw,SBD,O
,9,Giancarlo Milotti,1995,DISC,79.20,83,M,130,132.5,-140,132.5,-110,110,-115,110,190,200,207.5,207.5,450,Raw,SBD,O
,10,Luca Bertossi,1989,DISC,78.32,83,M,170,180,187.5,187.5,70,75,-80,75,170,185,-195,185,447.5,Raw,SBD,O
,11,Matic Gabrovec,2006,POL,74.84,83,M,130,140,142.5,142.5,95,-100,100,100,175,190,200,200,442.5,Raw,SBD,O
,12,Luka Fortuna,2005,POL,77.38,83,M,132.5,142.5,-147.5,142.5,75,80,82.5,82.5,140,152.5,160,160,385,Raw,SBD,O
,1,Enrico Pravato,2000,DISC,91.88,93,M,225,237.5,250,250,135,145,152.5,152.5,260,280,-300,280,682.5,Raw,SBD,O
,2,Filip Gojkovic,2001,OLI,90.51,93,M,210,217.5,225,225,132.5,-140,-140,132.5,230,245,-255,245,602.5,Raw,SBD,O
,3,Aleksander Martinovič,1991,POL,90.62,93,M,185,195,205,205,130,-137.5,137.5,137.5,225,-237.5,250,250,592.5,Raw,SBD,O
,4,Daniele Michelli,2001,ITA,90.79,93,M,185,200,207.5,207.5,120,127.5,-132.5,127.5,205,217.5,227.5,227.5,562.5,Raw,SBD,O
,5,Kristjan Sušnik,2004,OLI,88.82,93,M,180,182.5,-195,182.5,-105,105,110,110,242.5,-250,250,250,542.5,Raw,SBD,O
,6,Riccardo Penazzi,1995,DISC,91.32,93,M,180,187.5,192.5,192.5,140,145,-147.5,145,190,200,205,205,542.5,Raw,SBD,O
,7,Matej Šemrl,2001,THOR,90.49,93,M,180,190,200,200,115,122.5,127.5,127.5,190,202.5,212.5,212.5,540,Raw,SBD,O
,8,Blaz Hudobivnik,2000,KAR,91.05,93,M,177.5,190,192.5,192.5,110,117.5,-122.5,117.5,197.5,212.5,222.5,222.5,532.5,Raw,SBD,O
,9,Aljoša Stankovič,2005,GROM,92.12,93,M,130,140,150,150,75,80,85,85,140,150,160,160,395,Raw,SBD,O
,1,Stefano Allen,1988,DISC,103.68,105,M,235,242.5,250,250,160,167.5,-170,167.5,280,300,-310.5,300,717.5,Raw,SBD,O
,2,Zan Zupancic,1993,OLI,103.45,105,M,230,242.5,252.5,252.5,157.5,167.5,-175,167.5,257.5,272.5,285,285,705,Raw,SBD,O
,3,Tim Drenovec,1998,GROM,101.23,105,M,250,262.5,270,270,127.5,132.5,-137.5,132.5,255,275,290,290,692.5,Raw,SBD,O
,4,Rok Kar,1993,THOR,98.56,105,M,212.5,220,225,225,140,145,147.5,147.5,270,280,-290,280,652.5,Raw,SBD,O
,5,David Pozar,1991,DISC,101.31,105,M,210,220,225,225,140,-147.5,147.5,147.5,230,240,250,250,622.5,Raw,SBD,O
,6,Rene Vivod,2002,THOR,100.36,105,M,180,190,200,200,-125,130,-135,130,230,240,250,250,580,Raw,SBD,O
,7,Erazem Ivanc,2001,GROM,99.08,105,M,185,197.5,205,205,122.5,130,-132.5,130,217.5,230,-240,230,565,Raw,SBD,O
,8,Rozle Kukovicic,2003,GROM,97.89,105,M,165,175,182.5,182.5,100.0,110,115,115,210,220,230,230,527.5,Raw,SBD,O
,9,Kristjan Trampuš,2002,OLI,96.85,105,M,165,177.5,185,185,100,105,107.5,107.5,-207.5,215,225,225,517.5,Raw,SBD,O
,1,Andraž Zupančič,1998,GROM,119.07,120,M,255,270,-275,270,162.5,-172.5,-172.5,162.5,275,290,300,300,732.5,Raw,SBD,O
,2,Edvin Hadžić,1998,POL,115.52,120,M,230,242.5,250,250,140,147.5,150,150,230,245,-250,245,645,Raw,SBD,O
,3,Rene Vucko,1996,THOR,111.13,120,M,197.5,207.5,-215,207.5,127.5,135,140,140,-230,240,-252.5,240,587.5,Raw,SBD,O
,4,Matic Vasle,2000,POL,112.20,120,M,135,145,152.5,152.5,72.5,-77.5,77.5,77.5,145,155,165,165,395,Raw,SBD,O
,DQ,Lan Znidarsic,2003,THOR,168.87,120+,M,180,190,197.5,197.5,120,125,-127.5,125,-180,-185,-185,,,Raw,SBD,O
,1,Jan Jerman,1996,THOR,68.31,74,M,,,,,77.5,80,85,85,,,,,85,Raw,B,O
,1,Galle Blaž Varzič,1993,THOR,91,93,M,,,,,135,140,-145,140,,,,,140,Raw,B,O
,1,Navid Ahmed Somali,1985,THOR,104.20,105,M,,,,,170,180,-185,180,,,,,180,Raw,B,O
,1,Leon Novak,1981,NMZ,109.70,120,M,,,,,155,165,170,170,,,,,170,Raw,B,O
,1,Marko Avgustin,1980,NMZ,120.45,120+,M,,,,,135,145,152.5,152.5,,,,,152.5,Raw,B,O
,1,Rebeka Pečjak,1996,OLI,68.29,69,F,,,,,65,70,72.5,72.5,,,,,72.5,Raw,B,O
,2,Maja Apat,1998,THOR,66.14,69,F,,,,,65,67.5,70,70,,,,,70,Raw,B,O
,1,Špela Videc,1996,THOR,94.26,84+,F,,,,,52.5,57.5,60,60,,,,,60,Raw,B,O
