Place,Name,Division,BirthYear,Country,BodyweightKg,Bench1Kg,Bench2Kg,Bench3Kg,Best3BenchKg,WeightClassKg,Sex,Event,TotalKg,Equipment
1,Sylwia Mularczyk,Juniorki do lat 18,2000,Poland,47,37.5,42.5,-48,42.5,47,F,B,42.5,Single-ply
2,Klaudia Poszwa,Juniorki do lat 18,2000,Poland,46.3,35,37.5,40,40,47,F,B,40,Single-ply
1,Natalia Jabłońska,Juniorki do lat 18,2000,Poland,56.8,35,42.5,45,45,57,F,B,45,Single-ply
2,Martyna Jaśkiewicz,Juniorki do lat 18,2001,Poland,56,35,37.5,-40,37.5,57,F,B,37.5,Single-ply
3,Klaudia Banaszak,Juniorki do lat 18,2001,Poland,56.3,32.5,-37.5,-37.5,32.5,57,F,B,32.5,Single-ply
1,Zuzanna Firek,Juniorki do lat 18,2000,Poland,60.6,57.5,-63.5,-63.5,57.5,63,F,B,57.5,Single-ply
2,Natalia Antkowiak,Juniorki do lat 18,2001,Poland,60.7,35,40,-45,40,63,F,B,40,Single-ply
1,Weronika Lenort,Juniorki do lat 18,2000,Poland,65,50,60,62.5,62.5,72,F,B,62.5,Single-ply
2,Justyna Sadek,Juniorki do lat 18,2001,Poland,64.4,40,42.5,45,45,72,F,B,45,Single-ply
3,Natalia Blacha,Juniorki do lat 18,2000,Poland,68.1,27.5,32.5,-37.5,32.5,72,F,B,32.5,Single-ply
1,Karolina Kalbarczyk,Juniorki do lat 18,2001,Poland,72.6,-35,40,45,45,84,F,B,45,Single-ply
1,Aleksandra Szymczykowska,Juniorki do lat 18,1998,Poland,47,40,-42.5,-42.5,40,47,F,B,40,Single-ply
1,Maria Kasprzyk,Juniorki do lat 18,1999,Poland,50.1,35,37.5,-40,37.5,52,F,B,37.5,Single-ply
2,Klaudia Saramak,Juniorki do lat 18,1999,Poland,49,25,30,-32.5,30,52,F,B,30,Single-ply
1,Agata Imianowska,Juniorki do lat 18,1998,Poland,55.8,55,60,62.5,62.5,57,F,B,62.5,Single-ply
2,Wiktoria Konkel,Juniorki do lat 18,1999,Poland,54.7,42.5,47.5,-50,47.5,57,F,B,47.5,Single-ply
1,Sandra Sołtyszewska,Juniorki do lat 18,1999,Poland,63,52.5,55,60,60,63,F,B,60,Single-ply
2,Aleksandra Trojnar,Juniorki do lat 18,1999,Poland,60.9,47.5,50,-55,50,63,F,B,50,Single-ply
1,Klaudia Nowak,Juniorki do lat 18,1998,Poland,65.9,80,82.5,85,85,72,F,B,85,Single-ply
2,Paulina Pawyza,Juniorki do lat 18,1999,Poland,64.1,50,55,57.5,57.5,72,F,B,57.5,Single-ply
3,Jadwiga Gieniusz,Juniorki do lat 18,1999,Poland,66.2,45,50,-52.5,50,72,F,B,50,Single-ply
1,Martyna Ratka,Juniorki do lat 23,1997,Poland,49.5,32.5,35,37.5,37.5,52,F,B,37.5,Single-ply
2,Inga Bębenek,Juniorki do lat 23,1996,Poland,50.6,32.5,37.5,-40,37.5,52,F,B,37.5,Single-ply
1,Aleksandra Grzywniak,Juniorki do lat 23,1997,Poland,53.9,50,-55,-55,50,57,F,B,50,Single-ply
1,Paulina Lechowicz,Juniorki do lat 23,1996,Poland,79.4,87.5,90,92.5,92.5,84,F,B,92.5,Single-ply
1,Marta Sroczyk,Juniorki do lat 23,1995,Poland,50.2,65,70,-75,70,52,F,B,70,Single-ply
1,Patrycja Orzeszek,Juniorki do lat 23,1994,Poland,55.2,40,42.5,45,45,57,F,B,45,Single-ply
1,Magdalena Kostka,Juniorki do lat 23,1993,Poland,61.9,70,73.5,-77.5,73.5,63,F,B,73.5,Single-ply
2,Monika Synakiewicz,Juniorki do lat 23,1993,Poland,58.7,45,50,-55,50,63,F,B,50,Single-ply
1,Daria Ławniczak,Juniorki do lat 23,1995,Poland,72,75,80,-85,80,72,F,B,80,Single-ply
2,Dorota Tomaszewska,Juniorki do lat 23,1994,Poland,65.5,45,50,-52.5,50,72,F,B,50,Single-ply
1,Nina Skalska,Seniorki,1989,Poland,44.8,-50,52.5,-55.5,52.5,47,F,B,52.5,Single-ply
2,Sylwia Mularczyk,Seniorki,2000,Poland,47,37.5,42.5,-48,42.5,47,F,B,42.5,Single-ply
3,Klaudia Poszwa,Seniorki,2000,Poland,46.3,35,37.5,40,40,47,F,B,40,Single-ply
4,Aleksandra Szymczykowska,Seniorki,1998,Poland,47,40,-42.5,-42.5,40,47,F,B,40,Single-ply
1,Marta Sroczyk,Seniorki,1995,Poland,50.2,65,70,-75,70,52,F,B,70,Single-ply
2,Agnieszka Świerk,Seniorki,1987,Poland,51.3,55,60,62.5,62.5,52,F,B,62.5,Single-ply
3,Anna Mikołajczyk,Seniorki,1990,Poland,49.9,45,-50,50,50,52,F,B,50,Single-ply
4,Joanna Rasek,Seniorki,1972,Poland,51,37.5,42.5,-45,42.5,52,F,B,42.5,Single-ply
1,Monika Sroczyk,Seniorki,1992,Poland,56.6,70,77.5,80,80,57,F,B,80,Single-ply
2,Aleksandra Szostak,Seniorki,1981,Poland,56.6,72.5,77.5,-80,77.5,57,F,B,77.5,Single-ply
3,Agata Imianowska,Seniorki,1998,Poland,55.8,55,60,62.5,62.5,57,F,B,62.5,Single-ply
4,Aleksandra Grzywniak,Seniorki,1997,Poland,53.9,50,-55,-55,50,57,F,B,50,Single-ply
1,Jadwiga Radwańska',Seniorki,1975,Poland,58.6,85,91,-95,91,63,F,B,91,Single-ply
2,Sylwia Martyniuk,Seniorki,1980,Poland,61.1,70,75,-77.5,75,63,F,B,75,Single-ply
3,Małgorzata Cieślik,Seniorki,1983,Poland,61.8,72.5,75,-77.5,75,63,F,B,75,Single-ply
4,Magdalena Kostka,Seniorki,1993,Poland,61.9,70,73.5,-77.5,73.5,63,F,B,73.5,Single-ply
5,Iwona Pawyza,Seniorki,1977,Poland,62.2,60,65,-67.5,65,63,F,B,65,Single-ply
6,Katarzyna Imiołek,Seniorki,1990,Poland,60,52.5,57.5,60,60,63,F,B,60,Single-ply
1,Agnieszka Tuczykont,Seniorki,1985,Poland,66,102.5,-111,111,111,72,F,B,111,Single-ply
2,Klaudia Nowak,Seniorki,1998,Poland,65.9,80,82.5,85,85,72,F,B,85,Single-ply
3,Elżbieta Siwiec,Seniorki,1988,Poland,72,75,82.5,-85,82.5,72,F,B,82.5,Single-ply
4,Daria Ławniczak,Seniorki,1995,Poland,72,75,80,-85,80,72,F,B,80,Single-ply
5,Sandra Kowalska,Seniorki,1986,Poland,69.4,-75,75,-82.5,75,72,F,B,75,Single-ply
6,Weronika Lenort,Seniorki,2000,Poland,65,50,60,62.5,62.5,72,F,B,62.5,Single-ply
7,Aleksandra Gudecka,Seniorki,1984,Poland,68.5,55,-60,60,60,72,F,B,60,Single-ply
8,Karolina Radgowska,Seniorki,1992,Poland,67,52.5,57.5,-60,57.5,72,F,B,57.5,Single-ply
1,Aneta Szot,Seniorki,1984,Poland,72.1,100,103.5,105,105,84,F,B,105,Single-ply
2,Paulina Lechowicz,Seniorki,1996,Poland,79.4,87.5,90,92.5,92.5,84,F,B,92.5,Single-ply
3,Katarzyna Dzieżok,Seniorki,1985,Poland,72.5,57.5,-60,-60,57.5,84,F,B,57.5,Single-ply
1,Barbara Pawlik,Seniorki,1959,Poland,104,92.5,97.5,100,100,84+,F,B,100,Single-ply
2,Kinga Moczydłowska,Seniorki,1987,Poland,84.4,85,92.5,-98,92.5,84+,F,B,92.5,Single-ply
1,Jadwiga Radwańska',Weteranki 40-49 lat,1975,Poland,58.6,85,91,-95,91,,F,B,91,Single-ply
2,Joanna Rasek,Weteranki 40-49 lat,1972,Poland,51,37.5,42.5,-45,42.5,,F,B,42.5,Single-ply
3,Katarzyna Kowalik,Weteranki 40-49 lat,,Poland,60.9,30,35,40,40,,F,B,40,Single-ply
1,Barbara Pawlik,Weteranki 50-59 lat,1959,Poland,104,92.5,97.5,100,100,84+,F,B,100,Single-ply
1,Jakub Jędrzejewski,Juniorki do lat 18,2001,Poland,53,95,100.5,-102.5,100.5,53,M,B,100.5,Single-ply
2,Krzysztof Lange,Juniorki do lat 18,2001,Poland,52.5,40,45,-50,45,53,M,B,45,Single-ply
1,Jan Lipski,Juniorki do lat 18,2001,Poland,58.6,60,65,70,70,59,M,B,70,Single-ply
2,Szymon Chlebowski,Juniorki do lat 18,2002,Poland,55.6,60,65,-67.5,65,59,M,B,65,Single-ply
3,Jakub Goraj,Juniorki do lat 18,2001,Poland,57.75,50,60,62.5,62.5,59,M,B,62.5,Single-ply
4,Filip Mielnicki,Juniorki do lat 18,2001,Poland,57.9,-52.5,55,60,60,59,M,B,60,Single-ply
1,Patryk Karasiński,Juniorki do lat 18,2000,Poland,62,80,87.5,90,90,66,M,B,90,Single-ply
2,Bernard Galicki,Juniorki do lat 18,2001,Poland,64.3,85,90,-92.5,90,66,M,B,90,Single-ply
3,Kacper Konkel,Juniorki do lat 18,2000,Poland,64.75,82.5,87.5,-90,87.5,66,M,B,87.5,Single-ply
4,Dawid Kaliszewski,Juniorki do lat 18,2000,Poland,64.5,80,-82.5,-90,80,66,M,B,80,Single-ply
5,Mateusz Ustarbowski,Juniorki do lat 18,2002,Poland,62.45,67.5,72.5,-80,72.5,66,M,B,72.5,Single-ply
6,Patryk Gruza,Juniorki do lat 18,2002,Poland,64.6,60,65,67.5,67.5,66,M,B,67.5,Single-ply
7,Denis Machnikowski,Juniorki do lat 18,2000,Poland,64,-57.5,57.5,65,65,66,M,B,65,Single-ply
1,Jakub Lenart,Juniorki do lat 18,2001,Poland,73,120,127.5,-133.5,127.5,74,M,B,127.5,Single-ply
2,Jakub Filiks,Juniorki do lat 18,2000,Poland,72.4,-85,85,97.5,97.5,74,M,B,97.5,Single-ply
3,Andreas Dietz,Juniorki do lat 18,2000,Poland,73.6,85,90,-97.5,90,74,M,B,90,Single-ply
4,Jakub Ostrowski,Juniorki do lat 18,2001,Poland,71.5,67.5,72.5,77.5,77.5,74,M,B,77.5,Single-ply
5,Błażej Wittstock,Juniorki do lat 18,2000,Poland,68.3,50,55,-57.5,55,74,M,B,55,Single-ply
1,Dawid Król,Juniorki do lat 18,2000,Poland,74.7,117.5,125,130,130,83,M,B,130,Single-ply
2,Adam Walczyk,Juniorki do lat 18,2000,Poland,81.7,105,110,115,115,83,M,B,115,Single-ply
3,Norbert Kaczor,Juniorki do lat 18,2001,Poland,80.2,85,90,95,95,83,M,B,95,Single-ply
4,Kacper Potrykus,Juniorki do lat 18,2000,Poland,77.7,80,87.5,90,90,83,M,B,90,Single-ply
1,Bartosz Łach,Juniorki do lat 18,2000,Poland,83.4,100,105,107.5,107.5,93,M,B,107.5,Single-ply
2,Daniel Machulik,Juniorki do lat 18,2001,Poland,83.6,95,100,105,105,93,M,B,105,Single-ply
3,Wojciech Papis,Juniorki do lat 18,2002,Poland,83.7,40,45,50,50,93,M,B,50,Single-ply
1,Kamil Szustek,Juniorki do lat 18,2000,Poland,96.2,100,110,115,115,105,M,B,115,Single-ply
2,Domnik Szewczuk,Juniorki do lat 18,2001,Poland,101.4,65,75,80,80,105,M,B,80,Single-ply
1,Albert Ruta,Juniorki do lat 18,2002,Poland,109,80,85,-90,85,120,M,B,85,Single-ply
2,Filip Lewczyk,Juniorki do lat 18,2000,Poland,108.5,50,60,70,70,120,M,B,70,Single-ply
1,Kordian Strzyga,Juniorki do lat 18,2002,Poland,138,70,75,80,80,120+,M,B,80,Single-ply
1,Norbert Jędrzejewski,Juniorki do lat 18,1999,Poland,58.85,85,-90,-90,85,59,M,B,85,Single-ply
2,Tomasz Michalak,Juniorki do lat 18,1999,Poland,58.3,75,80,82.5,82.5,59,M,B,82.5,Single-ply
3,Grzegorz Cieślak,Juniorki do lat 18,1999,Poland,58.85,75,-80,-82.5,75,59,M,B,75,Single-ply
1,Sebastian Kowalczyk,Juniorki do lat 18,1998,Poland,66,110,115,-120,115,66,M,B,115,Single-ply
2,Tomasz Roś,Juniorki do lat 18,1998,Poland,65.05,100,105,-110,105,66,M,B,105,Single-ply
3,Krystian Pelc,Juniorki do lat 18,1999,Poland,64.3,70,80,-90,80,66,M,B,80,Single-ply
1,Bartłomiej Kiersikowski,Juniorki do lat 18,1998,Poland,73.9,115,117.5,122.5,122.5,74,M,B,122.5,Single-ply
2,Oskar Sokolowski,Juniorki do lat 18,1998,Poland,70.6,120,-125,-125,120,74,M,B,120,Single-ply
3,Karol Budziwół,Juniorki do lat 18,1998,Poland,71.8,115,120,-122.5,120,74,M,B,120,Single-ply
4,Marek Majek,Juniorki do lat 18,1999,Poland,73.7,112.5,-117.5,-117.5,112.5,74,M,B,112.5,Single-ply
5,Hubert Kończak,Juniorki do lat 18,1997,Poland,73.5,105,110,-115,110,74,M,B,110,Single-ply
1,Bartosz Roszer,Juniorki do lat 18,1999,Poland,82.1,125,135,-140,135,83,M,B,135,Single-ply
2,Dawid Malutkiewicz,Juniorki do lat 18,1998,Poland,80,120,127.5,132.5,132.5,83,M,B,132.5,Single-ply
3,Dominik Dolatowski,Juniorki do lat 18,1998,Poland,80,110,115,-117.5,115,83,M,B,115,Single-ply
4,Bartosz Derc,Juniorki do lat 18,1998,Poland,75.2,102.5,107.5,110,110,83,M,B,110,Single-ply
5,Mateusz Brożek,Juniorki do lat 18,1999,Poland,76.2,100,105,-110,105,83,M,B,105,Single-ply
6,Krzysztof Jędrych,Juniorki do lat 18,1998,Poland,74.1,90,100,-110,100,83,M,B,100,Single-ply
7,Dawid Ożga,Juniorki do lat 18,1999,Poland,74.7,95,100,-105,100,83,M,B,100,Single-ply
8,Radoslaw Wloczka,Juniorki do lat 18,1999,Poland,78,80,85,-90,85,83,M,B,85,Single-ply
1,Kacper Wielochowski,Juniorki do lat 18,1998,Poland,92.3,150,157.5,165,165,93,M,B,165,Single-ply
2,Patryk Zaniewski,Juniorki do lat 18,1998,Poland,91.1,155,160,-165,160,93,M,B,160,Single-ply
3,Mateusz Olek,Juniorki do lat 18,1998,Poland,87.8,110,115,120,120,93,M,B,120,Single-ply
4,Rafal Czempiel,Juniorki do lat 18,1999,Poland,83.6,95,100,105,105,93,M,B,105,Single-ply
1,Dawid Grzegorczuk,Juniorki do lat 18,1998,Poland,102.5,210,217.5,222.5,222.5,105,M,B,222.5,Single-ply
2,Kamil Kostrzewa,Juniorki do lat 18,1998,Poland,100.8,127.5,135,140,140,105,M,B,140,Single-ply
3,Damian Żochowski,Juniorki do lat 18,1998,Poland,93.1,130,135,-137.5,135,105,M,B,135,Single-ply
4,Bartosz Zając,Juniorki do lat 18,1999,Poland,95.6,100,110,115,115,105,M,B,115,Single-ply
5,Michal Kwiatkowski,Juniorki do lat 18,1999,Poland,98,95,100,-102.5,100,105,M,B,100,Single-ply
1,Igor Kowalik,Juniorki do lat 18,1998,Poland,111.7,145,150,152.5,152.5,120,M,B,152.5,Single-ply
2,Arkadiusz Dziopa,Juniorki do lat 18,1998,Poland,109.1,130,140,-150,140,120,M,B,140,Single-ply
3,Artur Rużycki,Juniorki do lat 18,1998,Poland,105.6,65,70,-72.5,70,120,M,B,70,Single-ply
1,Martin Tretyn,Juniorki do lat 18,1999,Poland,132.8,135,140,147.5,147.5,120+,M,B,147.5,Single-ply
1,Mateusz Dzieniszewski,Juniorki do lat 18,1996,Poland,52.8,60,67.5,72.5,72.5,53,M,B,72.5,Single-ply
1,Adam Doliński,Juniorki do lat 18,1996,Poland,57.3,85,92.5,100,100,59,M,B,100,Single-ply
1,Jakub Chrzanowski,Juniorki do lat 18,1997,Poland,65.55,142.5,148,-150,148,66,M,B,148,Single-ply
2,Przemysław Grochal,Juniorki do lat 18,1997,Poland,65.3,80,82.5,-85,82.5,66,M,B,82.5,Single-ply
1,Hubert Kłak,Juniorki do lat 18,1996,Poland,73.7,165,-170,170,170,74,M,B,170,Single-ply
2,Cezary Murzyn,Juniorki do lat 18,1997,Poland,72.6,125,132.5,-135,132.5,74,M,B,132.5,Single-ply
3,Piotr Burzawa,Juniorki do lat 18,1997,Poland,73.2,105,110,-115,110,74,M,B,110,Single-ply
1,Konrad Piecha,Juniorki do lat 18,1997,Poland,79.6,145,150,-152.5,150,83,M,B,150,Single-ply
2,Sebastian Wieczorek,Juniorki do lat 18,1997,Poland,78.2,85,90,95,95,83,M,B,95,Single-ply
1,Michał Kojder,Juniorki do lat 18,1997,Poland,91.1,155,165,170,170,93,M,B,170,Single-ply
2,Marcin Lange,Juniorki do lat 18,1997,Poland,89.3,137.5,142.5,-147.5,142.5,93,M,B,142.5,Single-ply
3,Seweryn Rzepecki,Juniorki do lat 18,1997,Poland,88.5,130,137.5,-142.5,137.5,93,M,B,137.5,Single-ply
4,Marcin Stram,Juniorki do lat 18,1997,Poland,87.3,120,130,135,135,93,M,B,135,Single-ply
1,Tomasz Benisz,Juniorki do lat 18,1996,Poland,102.8,150,160,-165,160,105,M,B,160,Single-ply
1,Adrian Lis,Juniorki do lat 18,1997,Poland,123.4,150,170,182.5,182.5,120+,M,B,182.5,Single-ply
1,Paweł Hadas,Juniorki do lat 23,1993,Poland,57.3,107.5,112.5,-123,112.5,59,M,B,112.5,Single-ply
1,Tomasz Grzegorczuk,Juniorki do lat 23,1995,Poland,65.55,130,-135,-135,130,66,M,B,130,Single-ply
2,Andrzej Paszko,Juniorki do lat 23,1994,Poland,65.9,110,112.5,-132.5,112.5,66,M,B,112.5,Single-ply
3,Jakub Sikora,Juniorki do lat 23,1993,Poland,62.4,75,80,-82.5,80,66,M,B,80,Single-ply
1,Jakub Ciuchta,Juniorki do lat 23,1995,Poland,72.9,145,150,-155,150,74,M,B,150,Single-ply
2,Kamil Szaramowicz,Juniorki do lat 23,1994,Poland,71.3,120,125,-127.5,125,74,M,B,125,Single-ply
3,Mariusz Brito,Juniorki do lat 23,1994,Poland,74,115,122.5,-127.5,122.5,74,M,B,122.5,Single-ply
1,Łukasz Czajkowski,Juniorki do lat 23,1995,Poland,74.5,155,-157.5,160,160,83,M,B,160,Single-ply
2,Mateusz Klawitter,Juniorki do lat 23,1994,Poland,82.4,142.5,147.5,-157.5,147.5,83,M,B,147.5,Single-ply
3,Andrzej Szczurek,Juniorki do lat 23,1993,Poland,82.7,130,137.5,142.5,142.5,83,M,B,142.5,Single-ply
1,Łukasz Kojder,Juniorki do lat 23,1993,Poland,92,165,170,-172.5,170,93,M,B,170,Single-ply
2,Przemysław Kampa,Juniorki do lat 23,1993,Poland,91.9,150,155,160,160,93,M,B,160,Single-ply
3,Dawid Borkowski,Juniorki do lat 23,1995,Poland,92.1,137.5,145,-157.5,145,93,M,B,145,Single-ply
1,Mariusz Hintzke,Juniorki do lat 23,1994,Poland,103.5,192.5,200,-215,200,105,M,B,200,Single-ply
2,Michał Jakubowski,Juniorki do lat 23,1993,Poland,101.8,165,170,175,175,105,M,B,175,Single-ply
1,Rafał Kanas,Juniorki do lat 23,1993,Poland,105.9,175,185,-187.5,185,120,M,B,185,Single-ply
2,Tomasz Jastrzębski,Juniorki do lat 23,1995,Poland,119.2,175,177.5,180,180,120,M,B,180,Single-ply
3,Dawid Zaniewski,Juniorki do lat 23,1995,Poland,105.1,170,-175,177.5,177.5,120,M,B,177.5,Single-ply
4,Kamil Besztak,Juniorki do lat 23,1993,Poland,105.2,160,-180,-180,160,120,M,B,160,Single-ply
1,Łukasz Jędrysiak,Juniorki do lat 23,1995,Poland,132.3,140,150,-155,150,120+,M,B,150,Single-ply
1,Dariusz Wszoła,Seniorki,1978,Poland,58.6,145,150,-155,150,59,M,B,150,Single-ply
2,Sławomir Śledź,Seniorki,1976,Poland,58.6,135,140,-145.5,140,59,M,B,140,Single-ply
3,Marcin Loch,Seniorki,1988,Poland,53.7,115,120,-125,120,59,M,B,120,Single-ply
4,Paweł Hadas,Seniorki,1993,Poland,57.3,107.5,112.5,-123,112.5,59,M,B,112.5,Single-ply
5,Adam Doliński,Seniorki,1996,Poland,57.3,85,92.5,100,100,59,M,B,100,Single-ply
1,Jakub Chrzanowski,Seniorki,1997,Poland,65.55,142.5,148,-150,148,66,M,B,148,Single-ply
2,Rafał Zieliński,Seniorki,1983,Poland,65.45,140,145,-150,145,66,M,B,145,Single-ply
3,Piotr Pochopień,Seniorki,1984,Poland,65.7,-135,-135,135,135,66,M,B,135,Single-ply
4,Krzysztof Kuraciński,Seniorki,1986,Poland,64.5,125,130,-132.5,130,66,M,B,130,Single-ply
5,Tomasz Grzegorczuk,Seniorki,1995,Poland,65.55,130,-135,-135,130,66,M,B,130,Single-ply
6,Andrzej Paszko,Seniorki,1994,Poland,65.9,110,112.5,-132.5,112.5,66,M,B,112.5,Single-ply
1,Adam Balawejder,Seniorki,1981,Poland,73.9,180,-188,-188,180,74,M,B,180,Single-ply
2,Hubert Kłak,Seniorki,1996,Poland,73.7,165,-170,170,170,74,M,B,170,Single-ply
3,Bartosz Pałysiewicz,Seniorki,1984,Poland,73.8,160,170,-172.5,170,74,M,B,170,Single-ply
4,Bartosz Żelazko,Seniorki,1973,Poland,73.2,150,-152.5,152.5,152.5,74,M,B,152.5,Single-ply
5,Radosław Cichowicz,Seniorki,1991,Poland,73.3,140,147.5,152.5,152.5,74,M,B,152.5,Single-ply
6,Łukasz Żulczyk,Seniorki,1987,Poland,72.8,-140,145,-147.5,145,74,M,B,145,Single-ply
7,Paweł Demczuk,Seniorki,1981,Poland,72.8,125,130,-132.5,130,74,M,B,130,Single-ply
8,Adam Kalinowski,Seniorki,1982,Poland,71.6,110,120,-127.5,120,74,M,B,120,Single-ply
9,Piotr Przybecki,Seniorki,1979,Poland,70.8,115,-117.5,117.5,117.5,74,M,B,117.5,Single-ply
1,Grzegorz Jazowiecki,Seniorki,1987,Poland,82.9,185,192.5,198.5,198.5,83,M,B,198.5,Single-ply
2,Mariusz Marciniak,Seniorki,1980,Poland,82.9,180,185,-195,185,83,M,B,185,Single-ply
3,Łukasz Foryś,Seniorki,1985,Poland,82.1,175,182.5,-185,182.5,83,M,B,182.5,Single-ply
4,Mateusz Rufkiewicz,Seniorki,1988,Poland,82.1,180,-182.5,-185,180,83,M,B,180,Single-ply
5,Szymon Grzegoszczyk,Seniorki,1992,Poland,79.4,135,142.5,-147.5,142.5,83,M,B,142.5,Single-ply
1,Jan Wegiera,Seniorki,1965,Poland,93,215,220,-230,220,93,M,B,220,Single-ply
2,Paweł Tyborczyk,Seniorki,1979,Poland,92.4,205,212.5,-220,212.5,93,M,B,212.5,Single-ply
3,Stanisław Gąsienica-Samek,Seniorki,1983,Poland,91.5,200,202.5,-207.5,202.5,93,M,B,202.5,Single-ply
4,Sebastian Niedziela,Seniorki,1979,Poland,85.8,185,192.5,-195,192.5,93,M,B,192.5,Single-ply
5,Stanisław Mentel,Seniorki,1954,Poland,92.7,175,182.5,-188,182.5,93,M,B,182.5,Single-ply
6,Jakub Grabowski,Seniorki,1990,Poland,90.2,170,172.5,-175,172.5,93,M,B,172.5,Single-ply
7,Dawid Wełna,Seniorki,1991,Poland,93,150,157.5,160,160,93,M,B,160,Single-ply
8,Beniamin Zabłocki,Seniorki,1992,Poland,89.2,132.5,142.5,150,150,93,M,B,150,Single-ply
9,Hubert Zyśk,Seniorki,1977,Poland,93,-110,110,-117.5,110,93,M,B,110,Single-ply
DQ,Dawid Pelc,Seniorki,1989,Poland,92.4,-180,-180,-180,,93,M,B,,Single-ply
1,Dawid Grzegorczuk,Seniorki,1998,Poland,102.5,210,217.5,222.5,222.5,105,M,B,222.5,Single-ply
2,Kamil Kanas,Seniorki,1990,Poland,102,205,215,220,220,105,M,B,220,Single-ply
3,Artur Wróblewski,Seniorki,1981,Poland,101.7,205,212.5,-217.5,212.5,105,M,B,212.5,Single-ply
4,Artur Łanucha,Seniorki,1977,Poland,94,205,207.5,-212.5,207.5,105,M,B,207.5,Single-ply
5,Mariusz Hintzke,Seniorki,1994,Poland,103.5,192.5,200,-215,200,105,M,B,200,Single-ply
6,Mateusz Grzesik,Seniorki,1989,Poland,104,192.5,197.5,-202.5,197.5,105,M,B,197.5,Single-ply
7,Karol Jańczak,Seniorki,1985,Poland,104,180,190,195,195,105,M,B,195,Single-ply
8,Marcin Karkula,Seniorki,1987,Poland,98.5,185,-190,-190,185,105,M,B,185,Single-ply
9,Andrzej Pawlak,Seniorki,1979,Poland,102,110,117.5,125,125,105,M,B,125,Single-ply
10,Marcin Gucajma,Seniorki,1984,Poland,97.9,110,120,-127.5,120,105,M,B,120,Single-ply
1,Stanisław Gąsienica-Makowski,Seniorki,1973,Poland,109.5,220,230,-238,230,120,M,B,230,Single-ply
2,Łukasz Kuzioła,Seniorki,1983,Poland,120,200,215,,215,120,M,B,215,Single-ply
3,Krystian Lipiński,Seniorki,1989,Poland,118.7,200,207.5,210,210,120,M,B,210,Single-ply
4,Michał Nowaliński,Seniorki,1988,Poland,110.5,190,195,-202.5,195,120,M,B,195,Single-ply
5,Jan Joskowski,Seniorki,1991,Poland,114.5,170,180,-187.5,180,120,M,B,180,Single-ply
6,Michał Mossakowski,Seniorki,1991,Poland,110.6,165,-170,-170,165,120,M,B,165,Single-ply
7,Andrzej Koszyk,Seniorki,1979,Poland,107.5,160,-170,,160,120,M,B,160,Single-ply
DQ,Tomasz Mroczek,Seniorki,1985,Poland,118.1,-207.5,-207.5,-207.5,,120,M,B,,Single-ply
1,Marcin Laśkiewicz,Seniorki,1974,Poland,128.3,210,230,,230,120+,M,B,230,Single-ply
2,Robert Wiejas,Seniorki,1977,Poland,134.8,210,220,225,225,120+,M,B,225,Single-ply
3,Artur Kiczuk,Seniorki,1978,Poland,134.5,210,220,,220,120+,M,B,220,Single-ply
4,Robert Sacewicz,Seniorki,1973,Poland,131.9,200,212.5,-222.5,212.5,120+,M,B,212.5,Single-ply
5,Arkadiusz Staszewski,Seniorki,1984,Poland,130,200,207.5,-212.5,207.5,120+,M,B,207.5,Single-ply
6,Dawid Pawlik,Seniorki,1985,Poland,138.2,195,202.5,-205,202.5,120+,M,B,202.5,Single-ply
7,Paweł Szulecki,Seniorki,1974,Poland,150,160,-170,-170,160,120+,M,B,160,Single-ply
8,Stanisław Staniszewski,Seniorki,1957,Poland,122.4,130,-140,,130,120+,M,B,130,Single-ply
1,Sławomir Śledź,Weteranki 40-49 lat,1976,Poland,58.6,135,140,-145.5,140,59,M,B,140,Single-ply
1,Bartosz Żelazko,Weteranki 40-49 lat,1973,Poland,73.2,150,-152.5,152.5,152.5,74,M,B,152.5,Single-ply
2,Andrzej Kozłowski,Weteranki 40-49 lat,1969,Poland,74,130,132.5,-140,132.5,74,M,B,132.5,Single-ply
3,Rafał Szendera,Weteranki 40-49 lat,1971,Poland,73.7,125,130,-132.5,130,74,M,B,130,Single-ply
1,Ireneusz Fuja,Weteranki 40-49 lat,1970,Poland,83,135,137.5,140,140,83,M,B,140,Single-ply
2,Łukasz Głowacz,Weteranki 40-49 lat,1976,Poland,82.5,130,-137.5,-137.5,130,83,M,B,130,Single-ply
1,Mikołaj Kowalik,Weteranki 40-49 lat,1971,Poland,92.1,175,180,-185,180,93,M,B,180,Single-ply
2,Andrzej Śmieszek,Weteranki 40-49 lat,1975,Poland,89.6,150,167.5,-175,167.5,93,M,B,167.5,Single-ply
3,Piotr Pawyza,Weteranki 40-49 lat,1975,Poland,86,140,150,155,155,93,M,B,155,Single-ply
1,Sebastian Mazurek,Weteranki 40-49 lat,1975,Poland,102.6,180,185,190,190,105,M,B,190,Single-ply
2,Zbigniew Paszek,Weteranki 40-49 lat,1976,Poland,103.2,170,180,185,185,105,M,B,185,Single-ply
3,Waldemar Komisarek,Weteranki 40-49 lat,1975,Poland,102.2,-170,-172.5,172.5,172.5,105,M,B,172.5,Single-ply
4,Leszek Dąbrowski,Weteranki 40-49 lat,1973,Poland,99,170,-175,-175,170,105,M,B,170,Single-ply
5,Jerzy Goraj,Weteranki 40-49 lat,1972,Poland,100.8,155,-160,-160,155,105,M,B,155,Single-ply
6,Waldemar Doktór,Weteranki 40-49 lat,1973,Poland,103.9,125,132.5,-137.5,132.5,105,M,B,132.5,Single-ply
1,Stanisław Gąsienica-Makowski,Weteranki 40-49 lat,1973,Poland,109.5,220,230,-238,230,120,M,B,230,Single-ply
2,Krzysztof Chowaniak,Weteranki 40-49 lat,1973,Poland,110.1,200,205,-210,205,120,M,B,205,Single-ply
3,Jarosław Bastek,Weteranki 40-49 lat,1969,Poland,116.9,185,190,192.5,192.5,120,M,B,192.5,Single-ply
4,Jacek Wieczorek,Weteranki 40-49 lat,1973,Poland,118.6,175,180,-195,180,120,M,B,180,Single-ply
1,Marcin Laśkiewicz,Weteranki 40-49 lat,1974,Poland,128.3,210,230,,230,120+,M,B,230,Single-ply
2,Robert Sacewicz,Weteranki 40-49 lat,1973,Poland,131.9,200,212.5,-222.5,212.5,120+,M,B,212.5,Single-ply
3,Radosław Biernacki,Weteranki 40-49 lat,1973,Poland,137,185,192.5,-200,192.5,120+,M,B,192.5,Single-ply
1,Marian Piwowarczyk,Weteranki 50-59 lat,1961,Poland,63.6,90,95,100,100,66,M,B,100,Single-ply
1,Grzegorz Leski,Weteranki 50-59 lat,1958,Poland,74,105,112.5,-120,112.5,74,M,B,112.5,Single-ply
2,Tomasz Rutkowski,Weteranki 50-59 lat,1966,Poland,73.2,-75,75,-85,75,74,M,B,75,Single-ply
1,Zbigniew Hodowaniec,Weteranki 50-59 lat,1965,Poland,81.1,120,127.5,-132.5,127.5,83,M,B,127.5,Single-ply
2,Hieronim Dereń,Weteranki 50-59 lat,1966,Poland,81.7,-110,110,115,115,83,M,B,115,Single-ply
1,Jan Wegiera,Weteranki 50-59 lat,1965,Poland,93,215,220,-230,220,93,M,B,220,Single-ply
2,Mirosław Synakiewicz,Weteranki 50-59 lat,1966,Poland,89.1,130,140,147.5,147.5,93,M,B,147.5,Single-ply
3,Tomasz Domagała,Weteranki 50-59 lat,1962,Poland,89.8,105,115,-120,115,93,M,B,115,Single-ply
1,Józef Gromek,Weteranki 50-59 lat,1958,Poland,93.1,135,140,145,145,105,M,B,145,Single-ply
2,Krzysztof Kozielski,Weteranki 50-59 lat,1962,Poland,93.8,130,137.5,142.5,142.5,105,M,B,142.5,Single-ply
1,Andrzej Łasak,Weteranki 50-59 lat,1966,Poland,111.9,130,145,157.5,157.5,120,M,B,157.5,Single-ply
2,Krzysztof Kłopocki,Weteranki 50-59 lat,1959,Poland,106.7,155,-165,-165,155,120,M,B,155,Single-ply
3,Wiesław Dominik,Weteranki 50-59 lat,1965,Poland,117,152.5,-157.5,-160,152.5,120,M,B,152.5,Single-ply
1,Stanisław Staniszewski,Weteranki 50-59 lat,1957,Poland,122.4,130,-140,,130,120+,M,B,130,Single-ply
1,Eugeniusz Mehlich,Weteranki 60-69 lat,1956,Poland,73.5,100,105,107.5,107.5,74,M,B,107.5,Single-ply
1,Mirosław Fugiel,Weteranki 60-69 lat,1955,Poland,82.9,140,145,150,150,83,M,B,150,Single-ply
2,Kazimierz Tamiłowski,Weteranki 60-69 lat,1948,Poland,82.5,130,137.5,-145,137.5,83,M,B,137.5,Single-ply
3,Krzysztof Kuchnio,Weteranki 60-69 lat,1956,Poland,79.6,110,120,-130,120,83,M,B,120,Single-ply
4,Jerzy Więzik,Weteranki 60-69 lat,1953,Poland,79.4,100,102.5,105,105,83,M,B,105,Single-ply
1,Stanisław Mentel,Weteranki 60-69 lat,1954,Poland,92.7,175,182.5,-188,182.5,93,M,B,182.5,Single-ply
DQ,Marian Gottfried,Weteranki 60-69 lat,1949,Poland,87.7,-95,,,,93,M,B,,Single-ply
1,Jan Biskup,Weteranki 60-69 lat,1953,Poland,98,80,90,100,100,105,M,B,100,Single-ply
1,Roman Buszko,Weteranki 60-69 lat,1954,Poland,105.1,150,-170,-170,150,120,M,B,150,Single-ply
1,Bolesław Mąka,Weteranki +70 lat,1942,Poland,73.7,110,115,-120,115,74,M,B,115,Single-ply
1,Wiesław Dąbrowski,Weteranki +70 lat,1940,Poland,78,40,50,55,55,83,M,B,55,Single-ply
1,Jan Klus,Weteranki +70 lat,1945,Poland,88.2,100,110,120,120,93,M,B,120,Single-ply
