Name,Equipment,Division,BodyweightKg,WeightClassKg,Squat1Kg,Squat2Kg,Squat3Kg,Best3SquatKg,Bench1Kg,Bench2Kg,Bench3Kg,Best3BenchKg,Deadlift1Kg,Deadlift2Kg,Deadlift3Kg,Best3DeadliftKg,TotalKg,Place,Event,Sex,BirthDate
Katherine Pham,Raw,FR-Jr,55.15,57,90,97.5,105,105,50,55,60,60,115,122.5,130,130,295,1,SBD,F,
Skylar Donaldson,Raw,FR-Jr,61.15,63,95,105,112.5,112.5,55,62.5,67.5,67.5,115,127.5,140,140,320,1,SBD,F,
Laura Chapman,Raw,FR-Jr,67.8,69,120,130,140,140,65,70,72.5,72.5,140,150,160,160,372.5,1,SBD,F,
Madi Beaumont,Raw,FR-Jr,74.25,76,100,110,120,120,50,60,-72.5,60,115,132.5,150,150,330,1,SBD,F,
Kirsty Lei,Raw,FR-O,56.35,57,72.5,77.5,82.5,82.5,52.5,57.5,60,60,130,140,150,150,292.5,1,SBD,F,
Ebony Thomas,Raw,FR-O,61.85,63,105,115,120,120,70,77.5,82.5,82.5,125,135,145,145,347.5,1,SBD,F,
Nicki Dang,Raw,FR-O,61.8,63,107.5,112.5,115,115,62.5,67.5,70,70,145,155,160,160,345,2,SBD,F,
Elizabeth Killen,Raw,FR-O,62.2,63,85,92.5,100,100,50,52.5,-55,52.5,120,130,140,140,292.5,3,SBD,F,
Bernadette Chuan,Raw,FR-O,67.5,69,90,97.5,105,105,-62.5,65,70,70,125,135,142.5,142.5,317.5,1,SBD,F,
Elise O'Brien,Raw,FR-O,65.9,69,95,102.5,110,110,52.5,57.5,-60,57.5,120,130,140,140,307.5,2,SBD,F,
Rebecca Borchardt,Raw,FR-O,66.55,69,75,82.5,90,90,52.5,-57.5,60,60,110,120,-130,120,270,3,SBD,F,
Brianna Numa,Raw,FR-O,75.5,76,90,97.5,102.5,102.5,60,65,-67.5,65,130,140,-147.5,140,307.5,1,SBD,F,
Kianah Redman,Raw,FR-O,71.9,76,60,70,80,80,32.5,40,45,45,75,87.5,100,100,225,2,SBD,F,
Isabella Devetak,Raw,FR-O,83.3,84,147.5,155,160,160,80,85,90,90,150,162.5,175,175,425,1,SBD,F,
Jemma Astley,Raw,FR-O,96.1,84+,105,117.5,122.5,122.5,55,62.5,-70,62.5,130,142.5,-155,142.5,327.5,1,SBD,F,
Prunella Hayes,Raw,FR-Y,68,69,75,82.5,90,90,55,60,65,65,100,110,120,120,275,1,SBD,F,
Jason Tran #4,Raw,MR-Jr,65.25,66,160,175,190,190,77.5,87.5,97.5,97.5,160,180,195,195,482.5,1,SBD,M,
Kelvin Tran,Raw,MR-Jr,72.9,74,185,-195,-195,185,120,127.5,132.5,132.5,200,220,232.5,232.5,550,1,SBD,M,
Jack Willis,Raw,MR-Jr,69.8,74,135,142.5,152.5,152.5,105,110,115,115,192.5,210,-225,210,477.5,2,SBD,M,
Cameron Ealey,Raw,MR-Jr,72.95,74,125,135,-140,135,77.5,85,-87.5,85,135,145,155,155,375,3,SBD,M,
Filip Novakovic,Raw,MR-Jr,80.9,83,200,215,-225,215,135,145,150,150,235,250,-257.5,250,615,1,SBD,M,
Thomas McConville,Raw,MR-Jr,79.35,83,180,187.5,-195,187.5,112.5,117.5,-120,117.5,197.5,215,222.5,222.5,527.5,2,SBD,M,
Jarrod Leonard,Raw,MR-Jr,79.15,83,177.5,190,-197.5,190,110,-117.5,-117.5,110,192.5,207.5,220,220,520,3,SBD,M,
Edward Turner,Raw,MR-Jr,77.9,83,155,165,175,175,120,125,-130,125,172.5,187.5,200,200,500,4,SBD,M,
James Kellahan,Raw,MR-Jr,81.45,83,-167.5,167.5,175,175,107.5,110,-112.5,110,165,180,192.5,192.5,477.5,5,SBD,M,
Jacob Abade,Raw,MR-Jr,92.8,93,200,210,215,215,135,140,-142.5,140,245,260,275,275,630,1,SBD,M,
Thomas Hay,Raw,MR-Jr,92.95,93,195,210,215,215,120,127.5,135,135,200,215,225,225,575,2,SBD,M,
Nathan Nguyen,Raw,MR-Jr,90.15,93,185,195,205,205,105,110,115,115,195,205,215,215,535,3,SBD,M,
Dominic Parrera,Raw,MR-Jr,89.6,93,165,172.5,180,180,105,110,115,115,200,210,220,220,515,4,SBD,M,
Brendan Bate,Raw,MR-Jr,85.65,93,152.5,162.5,172.5,172.5,87.5,97.5,105,105,200,215,222.5,222.5,500,5,SBD,M,
Dominic Connors,Raw,MR-Jr,99.35,105,180,200,215,215,122.5,-132.5,132.5,132.5,230,250,-262.5,250,597.5,1,SBD,M,
Ben Lawler,Raw,MR-M1,79.5,83,175,185,190,190,95,100,102.5,102.5,190,202.5,207.5,207.5,500,1,SBD,M,
Rod Sutton,Raw,MR-M2,79.1,83,130,140,150,150,90,100,-110,100,130,142.5,155,155,405,1,SBD,M,
Trong Nguyen,Raw,MR-O,,,,,,,,,,,,,,,,NS,SBD,M,
Daniel Lee #14,Raw,MR-O,64.75,66,145,155,-165,155,92.5,100,102.5,102.5,165,180,195,195,452.5,1,SBD,M,
Zachary Torrevillas,Raw,MR-O,72.85,74,185,192.5,200,200,120,125,-127.5,125,220,235,250,250,575,1,SBD,M,
Jason Tran #5,Raw,MR-O,72.5,74,137.5,155,167.5,167.5,95,107.5,112.5,112.5,150,170,185,185,465,2,SBD,M,
Carson Choi,Raw,MR-O,70.2,74,140,150,160,160,100,110,120,120,160,170,180,180,460,3,SBD,M,
Jason Sicat,Raw,MR-O,82.35,83,200,215,220,220,127.5,132.5,137.5,137.5,240,250,257.5,257.5,615,1,SBD,M,
Matthew Le,Raw,MR-O,81.6,83,175,185,195,195,120,125,130,130,185,195,205,205,530,2,SBD,M,
Evan McCloy,Raw,MR-O,91.15,93,210,-215,-215,210,150,-157.5,-157.5,150,220,230,-240,230,590,1,SBD,M,
Patrick Stubbs,Raw,MR-O,92.55,93,175,187.5,195,195,117.5,122.5,125,125,212.5,230,242.5,242.5,562.5,2,SBD,M,
Luke Salemi,Raw,MR-O,102.7,105,237.5,255,270,270,147.5,-152.5,-152.5,147.5,275,290,300,300,717.5,1,SBD,M,
Jourdan Kooyman,Raw,MR-O,103.65,105,180,192.5,205,205,-155,155,160,160,242.5,255,265,265,630,2,SBD,M,
Micah Romero,Raw,MR-O,103.8,105,185,192.5,200,200,112.5,117.5,-120,117.5,220,237.5,252.5,252.5,570,3,SBD,M,
Michael Plant,Raw,MR-O,116.25,120,205,217.5,227.5,227.5,120,125,130,130,217.5,235,247.5,247.5,605,1,SBD,M,
Luke Talley,Raw,MR-Y,51.85,53,-132.5,132.5,142.5,142.5,80,85,87.5,87.5,85,92.5,102.5,102.5,332.5,1,SBD,M,
Zayd Ghanawi,Raw,MR-Y,90.95,93,155,162.5,170,170,110,115,120,120,190,205,225,225,515,1,SBD,M,
Riley Stephens,Raw,MR-Y,89.85,93,165,177.5,187.5,187.5,95,102.5,110,110,180,200,212.5,212.5,510,2,SBD,M,
Antonio Yaacoub,Raw,MR-Jr,79.35,83,,,,,95,100,105,105,,,,,105,1,B,M,
